%YAML 1.1
%TAG !u! tag:unity3d.com,2011:
--- !u!1045 &1
EditorBuildSettings:
  m_ObjectHideFlags: 0
  serializedVersion: 2
  m_Scenes:
  - enabled: 1
    path: Assets/Scenes/NeuMenu.unity
  - enabled: 1
    path: Assets/Scenes/level0.unity
  - enabled: 1
    path: Assets/Scenes/snake301.unity
  - enabled: 0
    path: Assets/Scenes/snake301.2-------------.unity
  - enabled: 0
    path: Assets/Scenes/snake302---------------.unity
  - enabled: 1
    path: Assets/Scenes/snake303.unity
  - enabled: 1
    path: Assets/Scenes/snake304.unity
  - enabled: 1
    path: Assets/Scenes/CoridorLevel.unity
  - enabled: 1
    path: Assets/Scenes/snake305.unity
  - enabled: 1
    path: Assets/Scenes/snake306.unity
  - enabled: 1
    path: Assets/Scenes/snake307.unity
  - enabled: 1
    path: Assets/Scenes/BasicLevel0.unity
  - enabled: 1
    path: Assets/Scenes/snake308.unity
  - enabled: 1
    path: Assets/Scenes/snake309.unity
  - enabled: 1
    path: Assets/Scenes/BasicLevel1.unity
  - enabled: 1
    path: Assets/Scenes/TrustFall.unity
  - enabled: 1
    path: Assets/Scenes/snake310.unity
  - enabled: 1
    path: Assets/Scenes/snake312.unity
  - enabled: 1
    path: Assets/Scenes/snake313.unity
  - enabled: 1
    path: Assets/Scenes/snake314.unity
  - enabled: 1
    path: Assets/Scenes/snake315.unity
  - enabled: 1
    path: Assets/Scenes/Cake.unity
  - enabled: 1
    path: Assets/Scenes/snake311.unity
  - enabled: 1
    path: Assets/Scenes/TheEnd.unity
  - enabled: 1
    path: Assets/Scenes/snakeRand1.unity
  - enabled: 1
    path: Assets/Scenes/snakeRand2.unity
  - enabled: 1
    path: Assets/Scenes/snakeRand3.unity
  - enabled: 1
    path: Assets/Scenes/snakeRand4.unity
  - enabled: 0
    path: Assets/Scenes/zzzzzzzzzzzzMainMenu.unity
  - enabled: 0
    path: Assets/Scenes/zzzzzzzzzzLevelSelection.unity
  - enabled: 1
    path: Assets/Scenes/NeuLevelSelection.unity
  - enabled: 1
    path: Assets/Scenes/NeuLevelSelectionRandom.unity
  - enabled: 1
    path: Assets/Scenes/NeuOptions.unity
